Prac Day Four
…
flight1|>filter(carrier == "OO")|>select(distance)

# A tibble: 1 × 1
  distance
     <dbl>
1      733

flight1|>filter(carrier == "YV")|>select(distance)

# A tibble: 46 × 1
   distance
      <dbl>
 1      229
 2      229
 3      229
 4      229
 5      229
 6      229
 7      229
 8      229
 9      229
10      229
# ℹ 36 more rows
…
flight_ontime <- flights|>filter(dep_delay>0, arr_delay<=0)|>summarise(proportion = n()/nrow(flights))|> pull(proportion)
flight_ontime

[1] 0.1052391

multi_airline_routes <- flights |> group_by(origin, dest) |> filter(n_distinct(carrier) > 1) |> distinct(origin, dest) |> ungroup()
multi_airline_routes

# A tibble: 128 × 2
   origin dest 
   <chr>  <chr>
 1 JFK    MIA  
 2 LGA    ATL  
 3 EWR    ORD  
 4 EWR    FLL  
 5 LGA    IAD  
 6 JFK    MCO  
 7 LGA    ORD  
 8 JFK    TPA  
 9 JFK    LAX  
10 EWR    SFO  
# ℹ 118 more rows

route_performance <- flights |> filter(paste(origin, dest) %in% paste(multi_airline_routes$origin, multi_airline_routes$dest)) |> group_by(origin, dest, carrier) |> summarise(avg_arr_delay = mean(arr_delay, na.rm = TRUE),
    .groups = "drop"  ) |> left_join(airlines, by = "carrier") |> rename(airline = name)

route_performance

# A tibble: 343 × 5
   origin dest  carrier avg_arr_delay airline                 
   <chr>  <chr> <chr>           <dbl> <chr>                   
 1 EWR    ATL   9E              -6.25 Endeavor Air Inc.       
 2 EWR    ATL   DL              10.0  Delta Air Lines Inc.    
 3 EWR    ATL   EV              19.5  ExpressJet Airlines Inc.
 4 EWR    ATL   UA              10.5  United Air Lines Inc.   
 5 EWR    AUS   UA               4.28 United Air Lines Inc.   
 6 EWR    AUS   WN             -11.2  Southwest Airlines Co.  
 7 EWR    BDL   EV               6.78 ExpressJet Airlines Inc.
 8 EWR    BDL   UA              22.6  United Air Lines Inc.   
 9 EWR    BNA   EV              17.7  ExpressJet Airlines Inc.
10 EWR    BNA   WN              -2.13 Southwest Airlines Co.  
# ℹ 333 more rows

best_worst <- route_performance |>  group_by(origin, dest) |> filter(n() >= 2) |>  summarise( best_airline = airline[which.min(avg_arr_delay)], worst_airline = airline[which.max(avg_arr_delay)], performance_gap = max(avg_arr_delay) - min(avg_arr_delay), .groups = "drop") |> arrange(desc(performance_gap))
best_worst

# A tibble: 128 × 5
   origin dest  best_airline           worst_airline            performance_gap
   <chr>  <chr> <chr>                  <chr>                              <dbl>
 1 JFK    ATL   Endeavor Air Inc.      ExpressJet Airlines Inc.           127. 
 2 LGA    XNA   Envoy Air              ExpressJet Airlines Inc.           112. 
 3 LGA    ORD   American Airlines Inc. SkyWest Airlines Inc.              108. 
 4 LGA    MSY   Endeavor Air Inc.      ExpressJet Airlines Inc.           102. 
 5 EWR    STL   Southwest Airlines Co. United Air Lines Inc.               96.4
 6 LGA    MSP   Delta Air Lines Inc.   Endeavor Air Inc.                   95.7
 7 EWR    DTW   United Air Lines Inc.  SkyWest Airlines Inc.               67.5
 8 LGA    ATL   Delta Air Lines Inc.   ExpressJet Airlines Inc.            56.7
 9 LGA    PBI   American Airlines Inc. ExpressJet Airlines Inc.            53.3
10 LGA    IND   Delta Air Lines Inc.   ExpressJet Airlines Inc.            47.2
# ℹ 118 more rows
…
